...Logging started...
0.0493733: Server Started
8.0221448: RespondedAwaitingApproval -3396904222957757064 10.0.234.149
8.0423767: RespondedConnect -3396904222957757064 10.0.234.149
8.0590363: Connected -3396904222957757064 10.0.234.149
8.0695078: => Outgoing RPC Sent to: SingleClient as SingleClient NetSyncId: -1 Function: StartVoIP( 1 )

8.0770081: => Outgoing RPC Sent to: SingleClient as SingleClient NetSyncId: -1 Function: SetPlayerId( 1 )

8.0838533: => Outgoing RPC Sent to: SingleClient as SingleClient NetSyncId: -1 Function: SetTeam( 2 )

9.6348328: RespondedAwaitingApproval -7922289176786378314 10.0.233.142
9.6514539: RespondedConnect -7922289176786378314 10.0.233.142
9.6680192: Connected -7922289176786378314 10.0.233.142
9.6749466: => Outgoing RPC Sent to: SingleClient as SingleClient NetSyncId: -1 Function: StartVoIP( 2 )

9.6819663: => Outgoing RPC Sent to: SingleClient as SingleClient NetSyncId: -1 Function: SetPlayerId( 2 )

9.6886985: => Outgoing RPC Sent to: SingleClient as SingleClient NetSyncId: -1 Function: SetTeam( 1 )

9.6955075: => Outgoing RPC Sent to: SingleClient as SingleClient NetSyncId: -1 Function: NewPlayerConnected( 1, 2 )

9.7026415: => Outgoing RPC Sent to: SingleClient as SingleClient NetSyncId: -1 Function: NewPlayerConnected( 2, 1 )

9.715247: AreaChange -7922289176786378314 10.0.233.142
13.4248994: RPC ServerOnly NetSyncId: -1 Function: SetName( Taako )

13.4336231: => Outgoing RPC Sent to: AllClients as SingleClient NetSyncId: -1 Function: PlayerNameChanged( 1, Taako )

13.4774637: RPC ServerOnly NetSyncId: -1 Function: SetCharacterType( 1 )

13.4956986: => Outgoing RPC Sent to: AllClients as SingleClient NetSyncId: -1 Function: PlayerClassChanged( 2, 1 )

15.4769366: RPC ServerOnly NetSyncId: -1 Function: SetCharacterType( 3 )

15.4875081: => Outgoing RPC Sent to: AllClients as SingleClient NetSyncId: -1 Function: PlayerClassChanged( 1, 3 )

16.9111204: RPC ServerOnly NetSyncId: -1 Function: SetName( Taako )

16.9222315: => Outgoing RPC Sent to: AllClients as SingleClient NetSyncId: -1 Function: PlayerNameChanged( 1, Taako )

16.9347132: RPC ServerOnly NetSyncId: -1 Function: SetCharacterType( 3 )

16.9453949: => Outgoing RPC Sent to: AllClients as SingleClient NetSyncId: -1 Function: PlayerClassChanged( 1, 3 )

16.9573586: RPC ServerOnly NetSyncId: -1 Function: Ready( True )

16.973382: => Outgoing RPC Sent to: AllClients as SingleClient NetSyncId: -1 Function: PlayerIsReady( 1, True )

17.2153886: RespondedAwaitingApproval -6269548533237831703 10.0.238.239
17.2347608: RespondedConnect -6269548533237831703 10.0.238.239
17.2513891: Connected -6269548533237831703 10.0.238.239
17.2590876: => Outgoing RPC Sent to: SingleClient as SingleClient NetSyncId: -1 Function: StartVoIP( 3 )

17.2675768: => Outgoing RPC Sent to: SingleClient as SingleClient NetSyncId: -1 Function: SetPlayerId( 3 )

17.275785: => Outgoing RPC Sent to: SingleClient as SingleClient NetSyncId: -1 Function: SetTeam( 2 )

17.2833502: => Outgoing RPC Sent to: SingleClient as SingleClient NetSyncId: -1 Function: NewPlayerConnected( 1, 2 )

17.2911835: => Outgoing RPC Sent to: SingleClient as SingleClient NetSyncId: -1 Function: PlayerNameChanged( 1, Taako )

17.298341: => Outgoing RPC Sent to: SingleClient as SingleClient NetSyncId: -1 Function: PlayerIsReady( 1, True )

17.3059175: => Outgoing RPC Sent to: SingleClient as SingleClient NetSyncId: -1 Function: PlayerClassChanged( 1, 3 )

17.3164147: => Outgoing RPC Sent to: SingleClient as SingleClient NetSyncId: -1 Function: NewPlayerConnected( 3, 2 )

17.3305959: => Outgoing RPC Sent to: SingleClient as SingleClient NetSyncId: -1 Function: NewPlayerConnected( 2, 1 )

17.3381566: => Outgoing RPC Sent to: SingleClient as SingleClient NetSyncId: -1 Function: PlayerClassChanged( 2, 1 )

17.3457467: => Outgoing RPC Sent to: SingleClient as SingleClient NetSyncId: -1 Function: NewPlayerConnected( 3, 2 )

17.3561256: AreaChange -6269548533237831703 10.0.238.239
17.3894261: RPC ServerOnly NetSyncId: -1 Function: SetName( Ethan )

17.3992968: => Outgoing RPC Sent to: AllClients as SingleClient NetSyncId: -1 Function: PlayerNameChanged( 2, Ethan )

17.4128693: RPC ServerOnly NetSyncId: -1 Function: Ready( True )

17.4252011: => Outgoing RPC Sent to: AllClients as SingleClient NetSyncId: -1 Function: PlayerIsReady( 2, True )

24.995432: RPC ServerOnly NetSyncId: -1 Function: SetName( Dazzaaaaa )

25.0045438: => Outgoing RPC Sent to: AllClients as SingleClient NetSyncId: -1 Function: PlayerNameChanged( 3, Dazzaaaaa )

25.0139101: RPC ServerOnly NetSyncId: -1 Function: SetCharacterType( 2 )

25.0225121: => Outgoing RPC Sent to: AllClients as SingleClient NetSyncId: -1 Function: PlayerClassChanged( 3, 2 )

25.0317625: RPC ServerOnly NetSyncId: -1 Function: Ready( True )

25.0406663: => Outgoing RPC Sent to: AllClients as SingleClient NetSyncId: -1 Function: PlayerIsReady( 3, True )

26.641627: RPC ServerOnly NetSyncId: -1 Function: Ready( False )

26.6505696: => Outgoing RPC Sent to: AllClients as SingleClient NetSyncId: -1 Function: PlayerIsReady( 3, False )

31.750458: RespondedAwaitingApproval -2663870139175795259 192.168.2.139
31.7725129: RespondedConnect -2663870139175795259 192.168.2.139
31.7895599: Connected -2663870139175795259 192.168.2.139
31.8032639: => Outgoing RPC Sent to: SingleClient as SingleClient NetSyncId: -1 Function: StartVoIP( 4 )

31.8165642: => Outgoing RPC Sent to: SingleClient as SingleClient NetSyncId: -1 Function: SetPlayerId( 4 )

31.8279649: => Outgoing RPC Sent to: SingleClient as SingleClient NetSyncId: -1 Function: SetTeam( 1 )

31.8367399: => Outgoing RPC Sent to: SingleClient as SingleClient NetSyncId: -1 Function: NewPlayerConnected( 1, 2 )

31.8451033: => Outgoing RPC Sent to: SingleClient as SingleClient NetSyncId: -1 Function: PlayerNameChanged( 1, Taako )

31.8540263: => Outgoing RPC Sent to: SingleClient as SingleClient NetSyncId: -1 Function: PlayerIsReady( 1, True )

31.8616659: => Outgoing RPC Sent to: SingleClient as SingleClient NetSyncId: -1 Function: PlayerClassChanged( 1, 3 )

31.871941: => Outgoing RPC Sent to: SingleClient as SingleClient NetSyncId: -1 Function: NewPlayerConnected( 4, 1 )

31.8807881: => Outgoing RPC Sent to: SingleClient as SingleClient NetSyncId: -1 Function: NewPlayerConnected( 2, 1 )

31.88841: => Outgoing RPC Sent to: SingleClient as SingleClient NetSyncId: -1 Function: PlayerNameChanged( 2, Ethan )

31.896033: => Outgoing RPC Sent to: SingleClient as SingleClient NetSyncId: -1 Function: PlayerIsReady( 2, True )

31.9045546: => Outgoing RPC Sent to: SingleClient as SingleClient NetSyncId: -1 Function: PlayerClassChanged( 2, 1 )

31.9130136: => Outgoing RPC Sent to: SingleClient as SingleClient NetSyncId: -1 Function: NewPlayerConnected( 4, 1 )

31.9210549: => Outgoing RPC Sent to: SingleClient as SingleClient NetSyncId: -1 Function: NewPlayerConnected( 3, 2 )

31.9285193: => Outgoing RPC Sent to: SingleClient as SingleClient NetSyncId: -1 Function: PlayerNameChanged( 3, Dazzaaaaa )

31.9360845: => Outgoing RPC Sent to: SingleClient as SingleClient NetSyncId: -1 Function: PlayerClassChanged( 3, 2 )

31.9452088: => Outgoing RPC Sent to: SingleClient as SingleClient NetSyncId: -1 Function: NewPlayerConnected( 4, 1 )

31.9596388: AreaChange -2663870139175795259 192.168.2.139
32.7883411: RespondedAwaitingApproval 2351415572268856207 10.0.98.131
32.8091096: RespondedConnect 2351415572268856207 10.0.98.131
32.8256586: Connected 2351415572268856207 10.0.98.131
32.839332: => Outgoing RPC Sent to: SingleClient as SingleClient NetSyncId: -1 Function: StartVoIP( 5 )

32.8529679: => Outgoing RPC Sent to: SingleClient as SingleClient NetSyncId: -1 Function: SetPlayerId( 5 )

32.86632: => Outgoing RPC Sent to: SingleClient as SingleClient NetSyncId: -1 Function: SetTeam( 2 )

32.8793027: => Outgoing RPC Sent to: SingleClient as SingleClient NetSyncId: -1 Function: NewPlayerConnected( 1, 2 )

32.8923236: => Outgoing RPC Sent to: SingleClient as SingleClient NetSyncId: -1 Function: PlayerNameChanged( 1, Taako )

32.9054846: => Outgoing RPC Sent to: SingleClient as SingleClient NetSyncId: -1 Function: PlayerIsReady( 1, True )

32.9138405: => Outgoing RPC Sent to: SingleClient as SingleClient NetSyncId: -1 Function: PlayerClassChanged( 1, 3 )

32.9221061: => Outgoing RPC Sent to: SingleClient as SingleClient NetSyncId: -1 Function: NewPlayerConnected( 5, 2 )

32.930388: => Outgoing RPC Sent to: SingleClient as SingleClient NetSyncId: -1 Function: NewPlayerConnected( 2, 1 )

32.9383923: => Outgoing RPC Sent to: SingleClient as SingleClient NetSyncId: -1 Function: PlayerNameChanged( 2, Ethan )

32.945734: => Outgoing RPC Sent to: SingleClient as SingleClient NetSyncId: -1 Function: PlayerIsReady( 2, True )

32.9531172: => Outgoing RPC Sent to: SingleClient as SingleClient NetSyncId: -1 Function: PlayerClassChanged( 2, 1 )

32.9609347: => Outgoing RPC Sent to: SingleClient as SingleClient NetSyncId: -1 Function: NewPlayerConnected( 5, 2 )

32.9682934: => Outgoing RPC Sent to: SingleClient as SingleClient NetSyncId: -1 Function: NewPlayerConnected( 3, 2 )

32.9759881: => Outgoing RPC Sent to: SingleClient as SingleClient NetSyncId: -1 Function: PlayerNameChanged( 3, Dazzaaaaa )

32.9834891: => Outgoing RPC Sent to: SingleClient as SingleClient NetSyncId: -1 Function: PlayerClassChanged( 3, 2 )

32.9909554: => Outgoing RPC Sent to: SingleClient as SingleClient NetSyncId: -1 Function: NewPlayerConnected( 5, 2 )

32.9985308: => Outgoing RPC Sent to: SingleClient as SingleClient NetSyncId: -1 Function: NewPlayerConnected( 4, 1 )

33.0068399: => Outgoing RPC Sent to: SingleClient as SingleClient NetSyncId: -1 Function: NewPlayerConnected( 5, 2 )

33.0148227: AreaChange 2351415572268856207 10.0.98.131
33.3738663: RespondedAwaitingApproval 1846889439958769634 10.0.244.63
33.3951895: RespondedConnect 1846889439958769634 10.0.244.63
33.4117219: Connected 1846889439958769634 10.0.244.63
33.4252661: => Outgoing RPC Sent to: SingleClient as SingleClient NetSyncId: -1 Function: StartVoIP( 6 )

33.4388881: => Outgoing RPC Sent to: SingleClient as SingleClient NetSyncId: -1 Function: SetPlayerId( 6 )

33.452467: => Outgoing RPC Sent to: SingleClient as SingleClient NetSyncId: -1 Function: SetTeam( 1 )

33.4663643: => Outgoing RPC Sent to: SingleClient as SingleClient NetSyncId: -1 Function: NewPlayerConnected( 1, 2 )

33.4796752: => Outgoing RPC Sent to: SingleClient as SingleClient NetSyncId: -1 Function: PlayerNameChanged( 1, Taako )

33.4929502: => Outgoing RPC Sent to: SingleClient as SingleClient NetSyncId: -1 Function: PlayerIsReady( 1, True )

33.5052997: => Outgoing RPC Sent to: SingleClient as SingleClient NetSyncId: -1 Function: PlayerClassChanged( 1, 3 )

33.5136737: => Outgoing RPC Sent to: SingleClient as SingleClient NetSyncId: -1 Function: NewPlayerConnected( 6, 1 )

33.5219907: => Outgoing RPC Sent to: SingleClient as SingleClient NetSyncId: -1 Function: NewPlayerConnected( 2, 1 )

33.530717: => Outgoing RPC Sent to: SingleClient as SingleClient NetSyncId: -1 Function: PlayerNameChanged( 2, Ethan )

33.5394014: => Outgoing RPC Sent to: SingleClient as SingleClient NetSyncId: -1 Function: PlayerIsReady( 2, True )

33.5468692: => Outgoing RPC Sent to: SingleClient as SingleClient NetSyncId: -1 Function: PlayerClassChanged( 2, 1 )

33.5543215: => Outgoing RPC Sent to: SingleClient as SingleClient NetSyncId: -1 Function: NewPlayerConnected( 6, 1 )

33.5618505: => Outgoing RPC Sent to: SingleClient as SingleClient NetSyncId: -1 Function: NewPlayerConnected( 3, 2 )

33.5693436: => Outgoing RPC Sent to: SingleClient as SingleClient NetSyncId: -1 Function: PlayerNameChanged( 3, Dazzaaaaa )

33.5843536: => Outgoing RPC Sent to: SingleClient as SingleClient NetSyncId: -1 Function: PlayerClassChanged( 3, 2 )

33.5919305: => Outgoing RPC Sent to: SingleClient as SingleClient NetSyncId: -1 Function: NewPlayerConnected( 6, 1 )

33.5995172: => Outgoing RPC Sent to: SingleClient as SingleClient NetSyncId: -1 Function: NewPlayerConnected( 4, 1 )

33.6073607: => Outgoing RPC Sent to: SingleClient as SingleClient NetSyncId: -1 Function: NewPlayerConnected( 6, 1 )

33.6154342: => Outgoing RPC Sent to: SingleClient as SingleClient NetSyncId: -1 Function: NewPlayerConnected( 5, 2 )

33.6230515: => Outgoing RPC Sent to: SingleClient as SingleClient NetSyncId: -1 Function: NewPlayerConnected( 6, 1 )

33.6340251: AreaChange 1846889439958769634 10.0.244.63
33.6979621: RPC ServerOnly NetSyncId: -1 Function: SetName( Zack )

33.7067673: => Outgoing RPC Sent to: AllClients as SingleClient NetSyncId: -1 Function: PlayerNameChanged( 6, Zack )

33.7152195: RPC ServerOnly NetSyncId: -1 Function: SetCharacterType( 1 )

33.7229414: => Outgoing RPC Sent to: AllClients as SingleClient NetSyncId: -1 Function: PlayerClassChanged( 6, 1 )

34.5285806: RPC ServerOnly NetSyncId: -1 Function: SetName( Clark )

34.5372563: => Outgoing RPC Sent to: AllClients as SingleClient NetSyncId: -1 Function: PlayerNameChanged( 5, Clark )

34.5473532: RPC ServerOnly NetSyncId: -1 Function: SetCharacterType( 3 )

34.5555853: => Outgoing RPC Sent to: AllClients as SingleClient NetSyncId: -1 Function: PlayerClassChanged( 5, 3 )

34.5644259: RPC ServerOnly NetSyncId: -1 Function: Ready( True )

34.5714822: => Outgoing RPC Sent to: AllClients as SingleClient NetSyncId: -1 Function: PlayerIsReady( 5, True )

34.9303891: RPC ServerOnly NetSyncId: -1 Function: SetName( Clark )

34.9393431: => Outgoing RPC Sent to: AllClients as SingleClient NetSyncId: -1 Function: PlayerNameChanged( 5, Clark )

34.9536489: RPC ServerOnly NetSyncId: -1 Function: SetCharacterType( 3 )

34.9647388: => Outgoing RPC Sent to: AllClients as SingleClient NetSyncId: -1 Function: PlayerClassChanged( 5, 3 )

34.9763698: RPC ServerOnly NetSyncId: -1 Function: Ready( True )

34.9843874: => Outgoing RPC Sent to: AllClients as SingleClient NetSyncId: -1 Function: PlayerIsReady( 5, True )

35.8896919: RPC ServerOnly NetSyncId: -1 Function: SetName( Evan )

35.9000384: => Outgoing RPC Sent to: AllClients as SingleClient NetSyncId: -1 Function: PlayerNameChanged( 4, Evan )

38.3166295: RPC ServerOnly NetSyncId: -1 Function: SetCharacterType( 1 )

38.3263541: => Outgoing RPC Sent to: AllClients as SingleClient NetSyncId: -1 Function: PlayerClassChanged( 4, 1 )

48.7623714: RPC ServerOnly NetSyncId: -1 Function: Ready( False )

48.776416: => Outgoing RPC Sent to: AllClients as SingleClient NetSyncId: -1 Function: PlayerIsReady( 5, False )

51.1097063: RPC ServerOnly NetSyncId: -1 Function: SetName( Clark )

51.1233468: => Outgoing RPC Sent to: AllClients as SingleClient NetSyncId: -1 Function: PlayerNameChanged( 5, Clark )

51.1438823: RPC ServerOnly NetSyncId: -1 Function: SetCharacterType( 3 )

51.162608: => Outgoing RPC Sent to: AllClients as SingleClient NetSyncId: -1 Function: PlayerClassChanged( 5, 3 )

51.1765381: RPC ServerOnly NetSyncId: -1 Function: Ready( True )

51.1898199: => Outgoing RPC Sent to: AllClients as SingleClient NetSyncId: -1 Function: PlayerIsReady( 5, True )

55.1993452: RPC ServerOnly NetSyncId: -1 Function: Ready( False )

55.2133183: => Outgoing RPC Sent to: AllClients as SingleClient NetSyncId: -1 Function: PlayerIsReady( 5, False )

57.3198299: RPC ServerOnly NetSyncId: -1 Function: SetName( Fabio )

57.3395808: => Outgoing RPC Sent to: AllClients as SingleClient NetSyncId: -1 Function: PlayerNameChanged( 5, Fabio )

57.350107: RPC ServerOnly NetSyncId: -1 Function: SetCharacterType( 2 )

57.3593959: => Outgoing RPC Sent to: AllClients as SingleClient NetSyncId: -1 Function: PlayerClassChanged( 5, 2 )

57.3690861: RPC ServerOnly NetSyncId: -1 Function: Ready( True )

57.3779804: => Outgoing RPC Sent to: AllClients as SingleClient NetSyncId: -1 Function: PlayerIsReady( 5, True )

79.4828246: RespondedAwaitingApproval 7297448115438352621 10.0.230.121
79.5068331: RespondedConnect 7297448115438352621 10.0.230.121
79.5235569: Connected 7297448115438352621 10.0.230.121
79.5384136: => Outgoing RPC Sent to: SingleClient as SingleClient NetSyncId: -1 Function: StartVoIP( 7 )

79.5523962: => Outgoing RPC Sent to: SingleClient as SingleClient NetSyncId: -1 Function: SetPlayerId( 7 )

79.566073: => Outgoing RPC Sent to: SingleClient as SingleClient NetSyncId: -1 Function: SetTeam( 2 )

79.5794707: => Outgoing RPC Sent to: SingleClient as SingleClient NetSyncId: -1 Function: NewPlayerConnected( 1, 2 )

79.5927993: => Outgoing RPC Sent to: SingleClient as SingleClient NetSyncId: -1 Function: PlayerNameChanged( 1, Taako )

79.6062465: => Outgoing RPC Sent to: SingleClient as SingleClient NetSyncId: -1 Function: PlayerIsReady( 1, True )

79.6196427: => Outgoing RPC Sent to: SingleClient as SingleClient NetSyncId: -1 Function: PlayerClassChanged( 1, 3 )

79.6330162: => Outgoing RPC Sent to: SingleClient as SingleClient NetSyncId: -1 Function: NewPlayerConnected( 7, 2 )

79.6463603: => Outgoing RPC Sent to: SingleClient as SingleClient NetSyncId: -1 Function: NewPlayerConnected( 2, 1 )

79.6597645: => Outgoing RPC Sent to: SingleClient as SingleClient NetSyncId: -1 Function: PlayerNameChanged( 2, Ethan )

79.6732026: => Outgoing RPC Sent to: SingleClient as SingleClient NetSyncId: -1 Function: PlayerIsReady( 2, True )

79.6867668: => Outgoing RPC Sent to: SingleClient as SingleClient NetSyncId: -1 Function: PlayerClassChanged( 2, 1 )

79.7000169: => Outgoing RPC Sent to: SingleClient as SingleClient NetSyncId: -1 Function: NewPlayerConnected( 7, 2 )

79.7134784: => Outgoing RPC Sent to: SingleClient as SingleClient NetSyncId: -1 Function: NewPlayerConnected( 3, 2 )

79.7277159: => Outgoing RPC Sent to: SingleClient as SingleClient NetSyncId: -1 Function: PlayerNameChanged( 3, Dazzaaaaa )

79.7417714: => Outgoing RPC Sent to: SingleClient as SingleClient NetSyncId: -1 Function: PlayerClassChanged( 3, 2 )

79.7550441: => Outgoing RPC Sent to: SingleClient as SingleClient NetSyncId: -1 Function: NewPlayerConnected( 7, 2 )

79.7682583: => Outgoing RPC Sent to: SingleClient as SingleClient NetSyncId: -1 Function: NewPlayerConnected( 4, 1 )

79.7814805: => Outgoing RPC Sent to: SingleClient as SingleClient NetSyncId: -1 Function: PlayerNameChanged( 4, Evan )

79.7946278: => Outgoing RPC Sent to: SingleClient as SingleClient NetSyncId: -1 Function: PlayerClassChanged( 4, 1 )

79.8078534: => Outgoing RPC Sent to: SingleClient as SingleClient NetSyncId: -1 Function: NewPlayerConnected( 7, 2 )

79.8210351: => Outgoing RPC Sent to: SingleClient as SingleClient NetSyncId: -1 Function: NewPlayerConnected( 5, 2 )

79.834215: => Outgoing RPC Sent to: SingleClient as SingleClient NetSyncId: -1 Function: PlayerNameChanged( 5, Fabio )

79.8475228: => Outgoing RPC Sent to: SingleClient as SingleClient NetSyncId: -1 Function: PlayerIsReady( 5, True )

79.860737: => Outgoing RPC Sent to: SingleClient as SingleClient NetSyncId: -1 Function: PlayerClassChanged( 5, 2 )

79.8737749: => Outgoing RPC Sent to: SingleClient as SingleClient NetSyncId: -1 Function: NewPlayerConnected( 7, 2 )

79.8867868: => Outgoing RPC Sent to: SingleClient as SingleClient NetSyncId: -1 Function: NewPlayerConnected( 6, 1 )

79.8998035: => Outgoing RPC Sent to: SingleClient as SingleClient NetSyncId: -1 Function: PlayerNameChanged( 6, Zack )

79.9128063: => Outgoing RPC Sent to: SingleClient as SingleClient NetSyncId: -1 Function: PlayerClassChanged( 6, 1 )

79.925851: => Outgoing RPC Sent to: SingleClient as SingleClient NetSyncId: -1 Function: NewPlayerConnected( 7, 2 )

79.9428916: AreaChange 7297448115438352621 10.0.230.121
84.7038033: RPC ServerOnly NetSyncId: -1 Function: SetName( Dd )

84.7173932: => Outgoing RPC Sent to: AllClients as SingleClient NetSyncId: -1 Function: PlayerNameChanged( 7, Dd )

84.7317149: RPC ServerOnly NetSyncId: -1 Function: SetCharacterType( 2 )

84.7452013: => Outgoing RPC Sent to: AllClients as SingleClient NetSyncId: -1 Function: PlayerClassChanged( 7, 2 )

84.7593119: RPC ServerOnly NetSyncId: -1 Function: Ready( True )

84.7721791: => Outgoing RPC Sent to: AllClients as SingleClient NetSyncId: -1 Function: PlayerIsReady( 7, True )

88.385099: RPC ServerOnly NetSyncId: -1 Function: SetName( Dazzaaaaa )

88.3989279: => Outgoing RPC Sent to: AllClients as SingleClient NetSyncId: -1 Function: PlayerNameChanged( 3, Dazzaaaaa )

88.4111608: RPC ServerOnly NetSyncId: -1 Function: SetCharacterType( 2 )

88.4204153: => Outgoing RPC Sent to: AllClients as SingleClient NetSyncId: -1 Function: PlayerClassChanged( 3, 2 )

88.4301716: RPC ServerOnly NetSyncId: -1 Function: Ready( True )

88.4389821: => Outgoing RPC Sent to: AllClients as SingleClient NetSyncId: -1 Function: PlayerIsReady( 3, True )

90.3266131: RPC ServerOnly NetSyncId: -1 Function: Ready( True )

90.3419429: => Outgoing RPC Sent to: AllClients as SingleClient NetSyncId: -1 Function: PlayerIsReady( 6, True )

90.3577696: => Outgoing RPC Sent to: AllClients as SingleClient NetSyncId: -1 Function: GameStart( 2 )

90.3764852: RPC ServerOnly NetSyncId: -1 Function: Ready( True )

90.3899668: => Outgoing RPC Sent to: AllClients as SingleClient NetSyncId: -1 Function: PlayerIsReady( 4, True )

92.3297146: => Outgoing RPC Sent to: AllClients as SingleClient NetSyncId: -1 Function: SetMapSize( 9, 13 )

92.3453812: => Outgoing RPC Sent to: AllClients as SingleClient NetSyncId: -1 Function: SetBlockedSpace( 0, 3 )

92.3599505: => Outgoing RPC Sent to: AllClients as SingleClient NetSyncId: -1 Function: SetBlockedSpace( 2, 12 )

92.3731712: => Outgoing RPC Sent to: AllClients as SingleClient NetSyncId: -1 Function: SetBlockedSpace( 6, 9 )

92.3863423: => Outgoing RPC Sent to: AllClients as SingleClient NetSyncId: -1 Function: SetBlockedSpace( 6, 11 )

92.40032: => Outgoing RPC Sent to: AllClients as SingleClient NetSyncId: -1 Function: SetBlockedSpace( 7, 11 )

92.4143094: => Outgoing RPC Sent to: AllClients as SingleClient NetSyncId: -1 Function: UpdateHealth( 1, 30 )

92.4274897: => Outgoing RPC Sent to: AllClients as SingleClient NetSyncId: -1 Function: SetPlayerPosition( 1, 0, 4 )

92.4404988: => Outgoing RPC Sent to: AllClients as SingleClient NetSyncId: -1 Function: UpdateHealth( 2, 100 )

92.4536224: => Outgoing RPC Sent to: AllClients as SingleClient NetSyncId: -1 Function: SetPlayerPosition( 2, 3, 0 )

92.4666901: => Outgoing RPC Sent to: AllClients as SingleClient NetSyncId: -1 Function: UpdateHealth( 3, 70 )

92.4797605: => Outgoing RPC Sent to: AllClients as SingleClient NetSyncId: -1 Function: SetPlayerPosition( 3, 4, 6 )

92.4927232: => Outgoing RPC Sent to: AllClients as SingleClient NetSyncId: -1 Function: UpdateHealth( 4, 100 )

92.5057404: => Outgoing RPC Sent to: AllClients as SingleClient NetSyncId: -1 Function: SetPlayerPosition( 4, 8, 4 )

92.5188156: => Outgoing RPC Sent to: AllClients as SingleClient NetSyncId: -1 Function: UpdateHealth( 5, 70 )

92.5317648: => Outgoing RPC Sent to: AllClients as SingleClient NetSyncId: -1 Function: SetPlayerPosition( 5, 3, 6 )

92.5447845: => Outgoing RPC Sent to: AllClients as SingleClient NetSyncId: -1 Function: UpdateHealth( 6, 100 )

92.5578998: => Outgoing RPC Sent to: AllClients as SingleClient NetSyncId: -1 Function: SetPlayerPosition( 6, 6, 4 )

92.571023: => Outgoing RPC Sent to: AllClients as SingleClient NetSyncId: -1 Function: UpdateHealth( 7, 70 )

92.5842773: => Outgoing RPC Sent to: AllClients as SingleClient NetSyncId: -1 Function: SetPlayerPosition( 7, 6, 3 )

92.5973605: => Outgoing RPC Sent to: AllClients as SingleClient NetSyncId: -1 Function: StartTurn( 1 )

96.8913098: RPC ServerOnly NetSyncId: -1 Function: RequestMove( 1, 4 )

96.9084275: => Outgoing RPC Sent to: AllClients as SingleClient NetSyncId: -1 Function: SetPlayerPosition( 1, 1, 4 )

98.0047821: RPC ServerOnly NetSyncId: -1 Function: RequestMove( 2, 4 )

98.0205004: => Outgoing RPC Sent to: AllClients as SingleClient NetSyncId: -1 Function: SetPlayerPosition( 1, 2, 4 )

98.9346037: RPC ServerOnly NetSyncId: -1 Function: RequestMove( 3, 4 )

98.9505897: => Outgoing RPC Sent to: AllClients as SingleClient NetSyncId: -1 Function: SetPlayerPosition( 1, 3, 4 )

99.0020125: RPC ServerOnly NetSyncId: -1 Function: PassTurn(  )

99.0174567: => Outgoing RPC Sent to: AllClients as SingleClient NetSyncId: -1 Function: StartTurn( 2 )

99.996442: RPC ServerOnly NetSyncId: -1 Function: RequestMove( 3, 1 )

100.0141529: => Outgoing RPC Sent to: AllClients as SingleClient NetSyncId: -1 Function: SetPlayerPosition( 2, 3, 1 )

101.3256888: RPC ServerOnly NetSyncId: -1 Function: RequestMove( 3, 2 )

101.3416613: => Outgoing RPC Sent to: AllClients as SingleClient NetSyncId: -1 Function: SetPlayerPosition( 2, 3, 2 )

101.3576677: => Outgoing RPC Sent to: AllClients as SingleClient NetSyncId: -1 Function: StartTurn( 3 )

106.6142731: RPC ServerOnly NetSyncId: -1 Function: RequestMove( 5, 6 )

106.631444: => Outgoing RPC Sent to: AllClients as SingleClient NetSyncId: -1 Function: SetPlayerPosition( 3, 5, 6 )

107.2314083: RPC ServerOnly NetSyncId: -1 Function: RequestMove( 6, 6 )

107.2450982: => Outgoing RPC Sent to: AllClients as SingleClient NetSyncId: -1 Function: SetPlayerPosition( 3, 6, 6 )

107.7431967: RPC ServerOnly NetSyncId: -1 Function: RequestMove( 6, 5 )

107.7571261: => Outgoing RPC Sent to: AllClients as SingleClient NetSyncId: -1 Function: SetPlayerPosition( 3, 6, 5 )

109.3154009: RPC ServerOnly NetSyncId: -1 Function: PassTurn(  )

109.3292622: => Outgoing RPC Sent to: AllClients as SingleClient NetSyncId: -1 Function: StartTurn( 4 )

111.4186188: RPC ServerOnly NetSyncId: -1 Function: RequestMove( 8, 5 )

111.4319225: => Outgoing RPC Sent to: AllClients as SingleClient NetSyncId: -1 Function: SetPlayerPosition( 4, 8, 5 )

112.4284767: RPC ServerOnly NetSyncId: -1 Function: RequestMove( 7, 5 )

112.4435788: => Outgoing RPC Sent to: AllClients as SingleClient NetSyncId: -1 Function: SetPlayerPosition( 4, 7, 5 )

112.4592171: => Outgoing RPC Sent to: AllClients as SingleClient NetSyncId: -1 Function: StartTurn( 5 )

122.4331213: => Outgoing RPC Sent to: AllClients as SingleClient NetSyncId: -1 Function: StartTurn( 6 )

125.7962201: RPC ServerOnly NetSyncId: -1 Function: RequestMove( 6, 3 )

125.8103873: => Outgoing RPC Sent to: AllClients as SingleClient NetSyncId: -1 Function: UpdateHealth( 5, 60 )

126.2761018: RPC ServerOnly NetSyncId: -1 Function: RequestAttack( 6, 5 )

126.2910034: => Outgoing RPC Sent to: AllClients as SingleClient NetSyncId: -1 Function: AttackMade( 6, 6, 5 )

126.3056778: => Outgoing RPC Sent to: AllClients as SingleClient NetSyncId: -1 Function: UpdateHealth( 3, 40 )

126.3201229: => Outgoing RPC Sent to: AllClients as SingleClient NetSyncId: -1 Function: StartTurn( 7 )

128.275884: RPC ServerOnly NetSyncId: -1 Function: RequestMove( 5, 3 )

128.2904458: => Outgoing RPC Sent to: AllClients as SingleClient NetSyncId: -1 Function: SetPlayerPosition( 7, 5, 3 )

132.4188763: RPC ServerOnly NetSyncId: -1 Function: PassTurn(  )

132.4331149: => Outgoing RPC Sent to: AllClients as SingleClient NetSyncId: -1 Function: StartTurn( 1 )

134.9369832: RPC ServerOnly NetSyncId: -1 Function: RequestAttack( 3, 2 )

134.9512323: => Outgoing RPC Sent to: AllClients as SingleClient NetSyncId: -1 Function: AttackMade( 1, 3, 2 )

134.9664202: => Outgoing RPC Sent to: AllClients as SingleClient NetSyncId: -1 Function: UpdateHealth( 2, 90 )

134.9813637: => Outgoing RPC Sent to: AllClients as SingleClient NetSyncId: -1 Function: StartTurn( 2 )

134.9993936: RPC ServerOnly NetSyncId: -1 Function: PassTurn(  )

135.0144817: => Outgoing RPC Sent to: AllClients as SingleClient NetSyncId: -1 Function: UpdateHealth( 1, 20 )

144.3121941: RPC ServerOnly NetSyncId: -1 Function: RequestMove( 3, 3 )

144.3267804: => Outgoing RPC Sent to: AllClients as SingleClient NetSyncId: -1 Function: SetPlayerPosition( 2, 3, 3 )

144.9413012: RPC ServerOnly NetSyncId: -1 Function: RequestMove( 4, 3 )

144.9554122: => Outgoing RPC Sent to: AllClients as SingleClient NetSyncId: -1 Function: SetPlayerPosition( 2, 4, 3 )

144.970247: => Outgoing RPC Sent to: AllClients as SingleClient NetSyncId: -1 Function: StartTurn( 3 )

152.1799334: RPC ServerOnly NetSyncId: -1 Function: RequestAttack( 6, 4 )

152.194093: => Outgoing RPC Sent to: AllClients as SingleClient NetSyncId: -1 Function: AttackMade( 3, 6, 4 )

152.209359: => Outgoing RPC Sent to: AllClients as SingleClient NetSyncId: -1 Function: UpdateHealth( 6, 90 )

152.225049: => Outgoing RPC Sent to: AllClients as SingleClient NetSyncId: -1 Function: StartTurn( 4 )

154.3302153: RPC ServerOnly NetSyncId: -1 Function: RequestAttack( 6, 5 )

154.3448348: => Outgoing RPC Sent to: AllClients as SingleClient NetSyncId: -1 Function: AttackMade( 4, 6, 5 )

154.3597025: => Outgoing RPC Sent to: AllClients as SingleClient NetSyncId: -1 Function: UpdateHealth( 3, 10 )

154.3743666: => Outgoing RPC Sent to: AllClients as SingleClient NetSyncId: -1 Function: StartTurn( 5 )

160.6838976: RPC ServerOnly NetSyncId: -1 Function: RequestMove( 3, 6 )

160.6998961: => Outgoing RPC Sent to: AllClients as SingleClient NetSyncId: -1 Function: UpdateHealth( 5, 50 )

161.2020404: RPC ServerOnly NetSyncId: -1 Function: RequestMove( 3, 6 )

161.2195571: => Outgoing RPC Sent to: AllClients as SingleClient NetSyncId: -1 Function: UpdateHealth( 5, 40 )

161.4211285: RPC ServerOnly NetSyncId: -1 Function: RequestMove( 3, 5 )

161.4380585: => Outgoing RPC Sent to: AllClients as SingleClient NetSyncId: -1 Function: SetPlayerPosition( 5, 3, 5 )

163.6968928: RPC ServerOnly NetSyncId: -1 Function: RequestMove( 4, 5 )

163.7131386: => Outgoing RPC Sent to: AllClients as SingleClient NetSyncId: -1 Function: SetPlayerPosition( 5, 4, 5 )

164.3623119: RPC ServerOnly NetSyncId: -1 Function: RequestMove( 5, 5 )

164.3796848: => Outgoing RPC Sent to: AllClients as SingleClient NetSyncId: -1 Function: SetPlayerPosition( 5, 5, 5 )

169.3858681: RPC ServerOnly NetSyncId: -1 Function: RequestMove( 6, 5 )

169.404413: => Outgoing RPC Sent to: AllClients as SingleClient NetSyncId: -1 Function: UpdateHealth( 5, 30 )

171.3304698: RPC ServerOnly NetSyncId: -1 Function: RequestMove( 5, 4 )

171.360535: => Outgoing RPC Sent to: AllClients as SingleClient NetSyncId: -1 Function: SetPlayerPosition( 5, 5, 4 )

172.3721653: RPC ServerOnly NetSyncId: -1 Function: RequestMove( 5, 3 )

172.3860935: => Outgoing RPC Sent to: AllClients as SingleClient NetSyncId: -1 Function: UpdateHealth( 5, 20 )

181.3357468: => Outgoing RPC Sent to: AllClients as SingleClient NetSyncId: -1 Function: StartTurn( 6 )

183.6563761: RPC ServerOnly NetSyncId: -1 Function: RequestAttack( 6, 5 )

183.670444: => Outgoing RPC Sent to: AllClients as SingleClient NetSyncId: -1 Function: AttackMade( 6, 6, 5 )

183.685286: => Outgoing RPC Sent to: AllClients as SingleClient NetSyncId: -1 Function: UpdateHealth( 3, -20 )

183.6996895: => Outgoing RPC Sent to: AllClients as SingleClient NetSyncId: -1 Function: StartTurn( 7 )

184.9590804: RPC ServerOnly NetSyncId: -1 Function: RequestMove( 5, 2 )

184.9725944: => Outgoing RPC Sent to: AllClients as SingleClient NetSyncId: -1 Function: SetPlayerPosition( 7, 5, 2 )

185.5863612: RPC ServerOnly NetSyncId: -1 Function: RequestMove( 5, 1 )

185.600229: => Outgoing RPC Sent to: AllClients as SingleClient NetSyncId: -1 Function: SetPlayerPosition( 7, 5, 1 )

187.2077622: RPC ServerOnly NetSyncId: -1 Function: RequestMove( 5, 0 )

187.2215764: => Outgoing RPC Sent to: AllClients as SingleClient NetSyncId: -1 Function: SetPlayerPosition( 7, 5, 0 )

187.6203023: RPC ServerOnly NetSyncId: -1 Function: RequestMove( 4, 0 )

187.633896: => Outgoing RPC Sent to: AllClients as SingleClient NetSyncId: -1 Function: SetPlayerPosition( 7, 4, 0 )

188.2326875: RPC ServerOnly NetSyncId: -1 Function: RequestMove( 3, 0 )

188.2467785: => Outgoing RPC Sent to: AllClients as SingleClient NetSyncId: -1 Function: SetPlayerPosition( 7, 3, 0 )

188.2613584: => Outgoing RPC Sent to: AllClients as SingleClient NetSyncId: -1 Function: StartTurn( 1 )

191.6086222: RPC ServerOnly NetSyncId: -1 Function: RequestAttack( 4, 3 )

191.6230598: => Outgoing RPC Sent to: AllClients as SingleClient NetSyncId: -1 Function: AttackMade( 1, 4, 3 )

191.6399014: => Outgoing RPC Sent to: AllClients as SingleClient NetSyncId: -1 Function: UpdateHealth( 2, 80 )

191.6542031: => Outgoing RPC Sent to: AllClients as SingleClient NetSyncId: -1 Function: StartTurn( 2 )

191.6723459: RPC ServerOnly NetSyncId: -1 Function: PassTurn(  )

191.6861136: => Outgoing RPC Sent to: AllClients as SingleClient NetSyncId: -1 Function: UpdateHealth( 1, 10 )

192.6310135: RPC ServerOnly NetSyncId: -1 Function: RequestMove( 5, 3 )

192.6452185: => Outgoing RPC Sent to: AllClients as SingleClient NetSyncId: -1 Function: UpdateHealth( 5, 10 )

198.462269: RPC ServerOnly NetSyncId: -1 Function: RequestMove( 5, 3 )

198.4766726: => Outgoing RPC Sent to: AllClients as SingleClient NetSyncId: -1 Function: UpdateHealth( 5, 0 )

200.2013751: RPC ServerOnly NetSyncId: -1 Function: RequestMove( 4, 4 )

200.2153758: => Outgoing RPC Sent to: AllClients as SingleClient NetSyncId: -1 Function: SetPlayerPosition( 2, 4, 4 )

200.9289086: RPC ServerOnly NetSyncId: -1 Function: RequestMove( 5, 4 )

200.9433556: => Outgoing RPC Sent to: AllClients as SingleClient NetSyncId: -1 Function: UpdateHealth( 2, 70 )

205.6190227: RPC ServerOnly NetSyncId: -1 Function: RequestMove( 5, 4 )

205.6337095: => Outgoing RPC Sent to: AllClients as SingleClient NetSyncId: -1 Function: UpdateHealth( 2, 60 )

209.0146788: RPC ServerOnly NetSyncId: -1 Function: RequestMove( 4, 5 )

209.0309462: => Outgoing RPC Sent to: AllClients as SingleClient NetSyncId: -1 Function: SetPlayerPosition( 2, 4, 5 )

209.0474431: => Outgoing RPC Sent to: AllClients as SingleClient NetSyncId: -1 Function: StartTurn( 4 )

213.32416: Disconnected 2351415572268856207 10.0.98.131
213.3412085: => Outgoing RPC Sent to: SingleClient as SingleClient NetSyncId: -1 Function: VoiceClientDisconnected(  )

215.2662432: RPC ServerOnly NetSyncId: -1 Function: RequestMove( 7, 6 )

215.2808707: => Outgoing RPC Sent to: AllClients as SingleClient NetSyncId: -1 Function: SetPlayerPosition( 4, 7, 6 )

224.5809043: RPC ServerOnly NetSyncId: -1 Function: PassTurn(  )

224.5981659: => Outgoing RPC Sent to: AllClients as SingleClient NetSyncId: -1 Function: StartTurn( 6 )

226.6068729: RPC ServerOnly NetSyncId: -1 Function: RequestMove( 5, 4 )

226.6233052: => Outgoing RPC Sent to: AllClients as SingleClient NetSyncId: -1 Function: UpdateHealth( 6, 80 )

229.9552532: RPC ServerOnly NetSyncId: -1 Function: RequestMove( 6, 5 )

229.9717456: => Outgoing RPC Sent to: AllClients as SingleClient NetSyncId: -1 Function: UpdateHealth( 6, 70 )

232.5631656: RPC ServerOnly NetSyncId: -1 Function: PassTurn(  )

232.5798909: => Outgoing RPC Sent to: AllClients as SingleClient NetSyncId: -1 Function: StartTurn( 7 )

235.2334887: RPC ServerOnly NetSyncId: -1 Function: RequestMove( 4, 0 )

235.2475929: => Outgoing RPC Sent to: AllClients as SingleClient NetSyncId: -1 Function: SetPlayerPosition( 7, 4, 0 )

235.7625372: RPC ServerOnly NetSyncId: -1 Function: RequestMove( 5, 0 )

235.7765523: => Outgoing RPC Sent to: AllClients as SingleClient NetSyncId: -1 Function: SetPlayerPosition( 7, 5, 0 )

236.2581074: RPC ServerOnly NetSyncId: -1 Function: RequestMove( 6, 0 )

236.2724959: => Outgoing RPC Sent to: AllClients as SingleClient NetSyncId: -1 Function: SetPlayerPosition( 7, 6, 0 )

237.0193726: RPC ServerOnly NetSyncId: -1 Function: RequestMove( 6, 1 )

237.0331883: => Outgoing RPC Sent to: AllClients as SingleClient NetSyncId: -1 Function: SetPlayerPosition( 7, 6, 1 )

237.8954062: RPC ServerOnly NetSyncId: -1 Function: RequestMove( 6, 2 )

237.9094186: => Outgoing RPC Sent to: AllClients as SingleClient NetSyncId: -1 Function: SetPlayerPosition( 7, 6, 2 )

237.9248624: => Outgoing RPC Sent to: AllClients as SingleClient NetSyncId: -1 Function: StartTurn( 1 )

241.5882453: RPC ServerOnly NetSyncId: -1 Function: RequestAttack( 4, 5 )

241.6024661: => Outgoing RPC Sent to: AllClients as SingleClient NetSyncId: -1 Function: AttackMade( 1, 4, 5 )

241.6175112: => Outgoing RPC Sent to: AllClients as SingleClient NetSyncId: -1 Function: UpdateHealth( 2, 50 )

241.6321799: => Outgoing RPC Sent to: AllClients as SingleClient NetSyncId: -1 Function: StartTurn( 2 )

241.6549643: RPC ServerOnly NetSyncId: -1 Function: PassTurn(  )

241.6686573: => Outgoing RPC Sent to: AllClients as SingleClient NetSyncId: -1 Function: UpdateHealth( 1, 0 )

243.9520702: RPC ServerOnly NetSyncId: -1 Function: RequestMove( 5, 5 )

243.9678437: => Outgoing RPC Sent to: AllClients as SingleClient NetSyncId: -1 Function: SetPlayerPosition( 2, 5, 5 )

244.7551581: RPC ServerOnly NetSyncId: -1 Function: RequestMove( 6, 5 )

244.7688156: => Outgoing RPC Sent to: AllClients as SingleClient NetSyncId: -1 Function: UpdateHealth( 2, 40 )

245.7469873: RPC ServerOnly NetSyncId: -1 Function: RequestMove( 5, 4 )

245.7608555: => Outgoing RPC Sent to: AllClients as SingleClient NetSyncId: -1 Function: UpdateHealth( 2, 30 )

247.2086005: RPC ServerOnly NetSyncId: -1 Function: RequestMove( 5, 6 )

247.2225513: => Outgoing RPC Sent to: AllClients as SingleClient NetSyncId: -1 Function: SetPlayerPosition( 2, 5, 6 )

247.237692: => Outgoing RPC Sent to: AllClients as SingleClient NetSyncId: -1 Function: StartTurn( 4 )

257.2096505: => Outgoing RPC Sent to: AllClients as SingleClient NetSyncId: -1 Function: StartTurn( 6 )

260.0125769: RPC ServerOnly NetSyncId: -1 Function: RequestMove( 6, 3 )

260.0296956: => Outgoing RPC Sent to: AllClients as SingleClient NetSyncId: -1 Function: SetPlayerPosition( 6, 6, 3 )

261.6573057: RPC ServerOnly NetSyncId: -1 Function: RequestMove( 5, 3 )

261.6738894: => Outgoing RPC Sent to: AllClients as SingleClient NetSyncId: -1 Function: SetPlayerPosition( 6, 5, 3 )

261.6899936: => Outgoing RPC Sent to: AllClients as SingleClient NetSyncId: -1 Function: StartTurn( 7 )

266.4664092: RPC ServerOnly NetSyncId: -1 Function: RequestMove( 5, 2 )

266.4832913: => Outgoing RPC Sent to: AllClients as SingleClient NetSyncId: -1 Function: SetPlayerPosition( 7, 5, 2 )

267.8125747: RPC ServerOnly NetSyncId: -1 Function: PassTurn(  )

267.8299464: => Outgoing RPC Sent to: AllClients as SingleClient NetSyncId: -1 Function: StartTurn( 2 )

268.9274266: RPC ServerOnly NetSyncId: -1 Function: RequestMove( 6, 6 )

268.9448603: => Outgoing RPC Sent to: AllClients as SingleClient NetSyncId: -1 Function: SetPlayerPosition( 2, 6, 6 )

276.605483: RPC ServerOnly NetSyncId: -1 Function: RequestMove( 7, 6 )

276.6215495: => Outgoing RPC Sent to: AllClients as SingleClient NetSyncId: -1 Function: UpdateHealth( 2, 20 )

276.6728567: RPC ServerOnly NetSyncId: -1 Function: RequestMove( 7, 6 )

276.6885063: => Outgoing RPC Sent to: AllClients as SingleClient NetSyncId: -1 Function: UpdateHealth( 2, 10 )

276.9059724: RPC ServerOnly NetSyncId: -1 Function: RequestMove( 7, 6 )

276.922819: => Outgoing RPC Sent to: AllClients as SingleClient NetSyncId: -1 Function: UpdateHealth( 2, 0 )

276.9398403: => Outgoing RPC Sent to: AllClients as SingleClient NetSyncId: -1 Function: StartTurn( 4 )

276.9587232: RPC ServerOnly NetSyncId: -1 Function: RequestMove( 7, 6 )

276.9725192: => Outgoing RPC Sent to: AllClients as SingleClient NetSyncId: -1 Function: UpdateHealth( 2, -10 )

282.7424854: RPC ServerOnly NetSyncId: -1 Function: RequestMove( 7, 7 )

282.7583653: => Outgoing RPC Sent to: AllClients as SingleClient NetSyncId: -1 Function: SetPlayerPosition( 4, 7, 7 )

283.0441921: RPC ServerOnly NetSyncId: -1 Function: RequestMove( 7, 8 )

283.0609673: => Outgoing RPC Sent to: AllClients as SingleClient NetSyncId: -1 Function: SetPlayerPosition( 4, 7, 8 )

283.0805887: => Outgoing RPC Sent to: AllClients as SingleClient NetSyncId: -1 Function: StartTurn( 6 )

285.551436: RPC ServerOnly NetSyncId: -1 Function: RequestAttack( 5, 2 )

285.5688448: => Outgoing RPC Sent to: AllClients as SingleClient NetSyncId: -1 Function: AttackMade( 6, 5, 2 )

285.5850336: => Outgoing RPC Sent to: AllClients as SingleClient NetSyncId: -1 Function: UpdateHealth( 7, 40 )

285.5998627: => Outgoing RPC Sent to: AllClients as SingleClient NetSyncId: -1 Function: StartTurn( 7 )

288.4668797: RPC ServerOnly NetSyncId: -1 Function: RequestAttack( 5, 3 )

288.4830096: => Outgoing RPC Sent to: AllClients as SingleClient NetSyncId: -1 Function: AttackMade( 7, 5, 3 )

288.5113346: => Outgoing RPC Sent to: AllClients as SingleClient NetSyncId: -1 Function: UpdateHealth( 6, 60 )

288.5264307: => Outgoing RPC Sent to: AllClients as SingleClient NetSyncId: -1 Function: StartTurn( 4 )

292.9846834: RPC ServerOnly NetSyncId: -1 Function: SendChat( Did I win? )

293.0017293: => Outgoing RPC Sent to: AllClients as SingleClient NetSyncId: -1 Function: DisplayChatMessage( Taako: Did I win? )

293.0217981: RPC ServerOnly NetSyncId: -1 Function: RequestMove( 7, 9 )

293.0361311: => Outgoing RPC Sent to: AllClients as SingleClient NetSyncId: -1 Function: SetPlayerPosition( 4, 7, 9 )

294.3129685: RPC ServerOnly NetSyncId: -1 Function: RequestMove( 7, 10 )

294.3295824: => Outgoing RPC Sent to: AllClients as SingleClient NetSyncId: -1 Function: SetPlayerPosition( 4, 7, 10 )

294.3454182: => Outgoing RPC Sent to: AllClients as SingleClient NetSyncId: -1 Function: StartTurn( 6 )

297.5483527: RPC ServerOnly NetSyncId: -1 Function: RequestAttack( 5, 2 )

297.5646623: => Outgoing RPC Sent to: AllClients as SingleClient NetSyncId: -1 Function: AttackMade( 6, 5, 2 )

297.5806551: => Outgoing RPC Sent to: AllClients as SingleClient NetSyncId: -1 Function: UpdateHealth( 7, 10 )

297.5958298: => Outgoing RPC Sent to: AllClients as SingleClient NetSyncId: -1 Function: StartTurn( 7 )

300.0650527: RPC ServerOnly NetSyncId: -1 Function: RequestMove( 4, 2 )

300.083109: => Outgoing RPC Sent to: AllClients as SingleClient NetSyncId: -1 Function: SetPlayerPosition( 7, 4, 2 )

300.9475649: RPC ServerOnly NetSyncId: -1 Function: RequestMove( 4, 1 )

300.9646138: => Outgoing RPC Sent to: AllClients as SingleClient NetSyncId: -1 Function: SetPlayerPosition( 7, 4, 1 )

301.4810979: RPC ServerOnly NetSyncId: -1 Function: RequestMove( 3, 1 )

301.498333: => Outgoing RPC Sent to: AllClients as SingleClient NetSyncId: -1 Function: SetPlayerPosition( 7, 3, 1 )

302.0308427: RPC ServerOnly NetSyncId: -1 Function: RequestMove( 2, 1 )

302.047226: => Outgoing RPC Sent to: AllClients as SingleClient NetSyncId: -1 Function: SetPlayerPosition( 7, 2, 1 )

302.6142856: RPC ServerOnly NetSyncId: -1 Function: RequestMove( 1, 1 )

302.6304974: => Outgoing RPC Sent to: AllClients as SingleClient NetSyncId: -1 Function: SetPlayerPosition( 7, 1, 1 )

302.6459114: => Outgoing RPC Sent to: AllClients as SingleClient NetSyncId: -1 Function: StartTurn( 4 )

306.0299226: Disconnected -3396904222957757064 10.0.234.149
306.0478664: => Outgoing RPC Sent to: SingleClient as SingleClient NetSyncId: -1 Function: VoiceClientDisconnected(  )

306.4992724: RPC ServerOnly NetSyncId: -1 Function: RequestMove( 6, 10 )

306.5154412: => Outgoing RPC Sent to: AllClients as SingleClient NetSyncId: -1 Function: SetPlayerPosition( 4, 6, 10 )

307.627382: RPC ServerOnly NetSyncId: -1 Function: RequestMove( 5, 10 )

307.640947: => Outgoing RPC Sent to: AllClients as SingleClient NetSyncId: -1 Function: SetPlayerPosition( 4, 5, 10 )

307.6555714: => Outgoing RPC Sent to: AllClients as SingleClient NetSyncId: -1 Function: StartTurn( 6 )

309.8765947: RPC ServerOnly NetSyncId: -1 Function: RequestMove( 4, 3 )

309.8902363: => Outgoing RPC Sent to: AllClients as SingleClient NetSyncId: -1 Function: SetPlayerPosition( 6, 4, 3 )

309.9049526: RPC ServerOnly NetSyncId: -1 Function: RequestMove( 4, 3 )

309.9182533: => Outgoing RPC Sent to: AllClients as SingleClient NetSyncId: -1 Function: UpdateHealth( 6, 50 )

310.6977118: RPC ServerOnly NetSyncId: -1 Function: PassTurn(  )

310.7119609: => Outgoing RPC Sent to: AllClients as SingleClient NetSyncId: -1 Function: StartTurn( 7 )

311.5256011: RPC ServerOnly NetSyncId: -1 Function: RequestMove( 1, 2 )

311.5393417: => Outgoing RPC Sent to: AllClients as SingleClient NetSyncId: -1 Function: SetPlayerPosition( 7, 1, 2 )

313.6315656: RPC ServerOnly NetSyncId: -1 Function: RequestMove( 1, 3 )

313.6453782: => Outgoing RPC Sent to: AllClients as SingleClient NetSyncId: -1 Function: SetPlayerPosition( 7, 1, 3 )

314.4937303: RPC ServerOnly NetSyncId: -1 Function: RequestMove( 1, 4 )

314.5075229: => Outgoing RPC Sent to: AllClients as SingleClient NetSyncId: -1 Function: SetPlayerPosition( 7, 1, 4 )

315.2045755: RPC ServerOnly NetSyncId: -1 Function: RequestMove( 1, 5 )

315.2182813: => Outgoing RPC Sent to: AllClients as SingleClient NetSyncId: -1 Function: SetPlayerPosition( 7, 1, 5 )

315.7493932: RPC ServerOnly NetSyncId: -1 Function: RequestMove( 1, 6 )

315.7630307: => Outgoing RPC Sent to: AllClients as SingleClient NetSyncId: -1 Function: SetPlayerPosition( 7, 1, 6 )

315.777469: => Outgoing RPC Sent to: AllClients as SingleClient NetSyncId: -1 Function: StartTurn( 4 )

325.753459: => Outgoing RPC Sent to: AllClients as SingleClient NetSyncId: -1 Function: StartTurn( 6 )

327.7750166: RPC ServerOnly NetSyncId: -1 Function: RequestMove( 4, 4 )

327.7888678: => Outgoing RPC Sent to: AllClients as SingleClient NetSyncId: -1 Function: SetPlayerPosition( 6, 4, 4 )

328.6185862: RPC ServerOnly NetSyncId: -1 Function: RequestMove( 4, 5 )

328.6367411: => Outgoing RPC Sent to: AllClients as SingleClient NetSyncId: -1 Function: SetPlayerPosition( 6, 4, 5 )

328.6726649: => Outgoing RPC Sent to: AllClients as SingleClient NetSyncId: -1 Function: StartTurn( 7 )

331.7912708: RPC ServerOnly NetSyncId: -1 Function: RequestMove( 1, 7 )

331.808339: => Outgoing RPC Sent to: AllClients as SingleClient NetSyncId: -1 Function: SetPlayerPosition( 7, 1, 7 )

332.7226782: RPC ServerOnly NetSyncId: -1 Function: RequestMove( 1, 8 )

332.7393983: => Outgoing RPC Sent to: AllClients as SingleClient NetSyncId: -1 Function: SetPlayerPosition( 7, 1, 8 )

335.3767046: RPC ServerOnly NetSyncId: -1 Function: RequestMove( 1, 7 )

335.3932498: => Outgoing RPC Sent to: AllClients as SingleClient NetSyncId: -1 Function: SetPlayerPosition( 7, 1, 7 )

336.1417742: RPC ServerOnly NetSyncId: -1 Function: RequestMove( 1, 6 )

336.1579238: => Outgoing RPC Sent to: AllClients as SingleClient NetSyncId: -1 Function: SetPlayerPosition( 7, 1, 6 )

336.8066296: RPC ServerOnly NetSyncId: -1 Function: RequestMove( 0, 6 )

336.8380021: => Outgoing RPC Sent to: AllClients as SingleClient NetSyncId: -1 Function: SetPlayerPosition( 7, 0, 6 )

336.8525979: => Outgoing RPC Sent to: AllClients as SingleClient NetSyncId: -1 Function: StartTurn( 4 )

338.0470655: RPC ServerOnly NetSyncId: -1 Function: RequestMove( 4, 10 )

338.0640786: => Outgoing RPC Sent to: AllClients as SingleClient NetSyncId: -1 Function: SetPlayerPosition( 4, 4, 10 )

340.501505: RPC ServerOnly NetSyncId: -1 Function: RequestMove( 3, 10 )

340.5182931: => Outgoing RPC Sent to: AllClients as SingleClient NetSyncId: -1 Function: SetPlayerPosition( 4, 3, 10 )

340.5370698: => Outgoing RPC Sent to: AllClients as SingleClient NetSyncId: -1 Function: StartTurn( 6 )

342.5465305: RPC ServerOnly NetSyncId: -1 Function: RequestMove( 3, 5 )

342.5624059: => Outgoing RPC Sent to: AllClients as SingleClient NetSyncId: -1 Function: SetPlayerPosition( 6, 3, 5 )

342.577869: RPC ServerOnly NetSyncId: -1 Function: RequestMove( 3, 5 )

342.5914332: => Outgoing RPC Sent to: AllClients as SingleClient NetSyncId: -1 Function: UpdateHealth( 6, 40 )

343.4707627: RPC ServerOnly NetSyncId: -1 Function: PassTurn(  )

343.4869961: => Outgoing RPC Sent to: AllClients as SingleClient NetSyncId: -1 Function: StartTurn( 7 )

343.5028772: RPC ServerOnly NetSyncId: -1 Function: PassTurn(  )

343.516418: => Outgoing RPC Sent to: AllClients as SingleClient NetSyncId: -1 Function: UpdateHealth( 6, 30 )

346.6371054: RPC ServerOnly NetSyncId: -1 Function: RequestMove( 0, 5 )

346.6534819: => Outgoing RPC Sent to: AllClients as SingleClient NetSyncId: -1 Function: SetPlayerPosition( 7, 0, 5 )

347.666658: RPC ServerOnly NetSyncId: -1 Function: RequestMove( 0, 4 )

347.6845263: => Outgoing RPC Sent to: AllClients as SingleClient NetSyncId: -1 Function: SetPlayerPosition( 7, 0, 4 )

348.2013218: RPC ServerOnly NetSyncId: -1 Function: RequestMove( 1, 4 )

348.2194269: => Outgoing RPC Sent to: AllClients as SingleClient NetSyncId: -1 Function: SetPlayerPosition( 7, 1, 4 )

348.7024172: RPC ServerOnly NetSyncId: -1 Function: RequestMove( 1, 3 )

348.7189753: => Outgoing RPC Sent to: AllClients as SingleClient NetSyncId: -1 Function: SetPlayerPosition( 7, 1, 3 )

349.4019066: RPC ServerOnly NetSyncId: -1 Function: RequestMove( 1, 2 )

349.418837: => Outgoing RPC Sent to: AllClients as SingleClient NetSyncId: -1 Function: SetPlayerPosition( 7, 1, 2 )

349.4372973: => Outgoing RPC Sent to: AllClients as SingleClient NetSyncId: -1 Function: StartTurn( 4 )

353.6030925: RPC ServerOnly NetSyncId: -1 Function: RequestMove( 3, 11 )

353.6214403: => Outgoing RPC Sent to: AllClients as SingleClient NetSyncId: -1 Function: SetPlayerPosition( 4, 3, 11 )

355.8117583: RPC ServerOnly NetSyncId: -1 Function: RequestMove( 3, 12 )

355.8293359: => Outgoing RPC Sent to: AllClients as SingleClient NetSyncId: -1 Function: SetPlayerPosition( 4, 3, 12 )

355.845758: => Outgoing RPC Sent to: AllClients as SingleClient NetSyncId: -1 Function: StartTurn( 6 )

358.1170585: RPC ServerOnly NetSyncId: -1 Function: RequestMove( 2, 5 )

358.133469: => Outgoing RPC Sent to: AllClients as SingleClient NetSyncId: -1 Function: SetPlayerPosition( 6, 2, 5 )

360.1567903: RPC ServerOnly NetSyncId: -1 Function: RequestMove( 2, 4 )

360.1736976: => Outgoing RPC Sent to: AllClients as SingleClient NetSyncId: -1 Function: SetPlayerPosition( 6, 2, 4 )

360.1897724: => Outgoing RPC Sent to: AllClients as SingleClient NetSyncId: -1 Function: StartTurn( 7 )

360.2073586: RPC ServerOnly NetSyncId: -1 Function: PassTurn(  )

360.2212898: => Outgoing RPC Sent to: AllClients as SingleClient NetSyncId: -1 Function: UpdateHealth( 6, 20 )

364.8632208: RPC ServerOnly NetSyncId: -1 Function: RequestMove( 2, 2 )

364.8794621: => Outgoing RPC Sent to: AllClients as SingleClient NetSyncId: -1 Function: SetPlayerPosition( 7, 2, 2 )

365.4789521: RPC ServerOnly NetSyncId: -1 Function: RequestMove( 3, 2 )

365.4949918: => Outgoing RPC Sent to: AllClients as SingleClient NetSyncId: -1 Function: SetPlayerPosition( 7, 3, 2 )

365.9950201: RPC ServerOnly NetSyncId: -1 Function: RequestMove( 4, 2 )

366.0120917: => Outgoing RPC Sent to: AllClients as SingleClient NetSyncId: -1 Function: SetPlayerPosition( 7, 4, 2 )

367.1247634: RPC ServerOnly NetSyncId: -1 Function: RequestMove( 5, 2 )

367.1414506: => Outgoing RPC Sent to: AllClients as SingleClient NetSyncId: -1 Function: SetPlayerPosition( 7, 5, 2 )

368.6520327: RPC ServerOnly NetSyncId: -1 Function: RequestMove( 6, 2 )

368.6656683: => Outgoing RPC Sent to: AllClients as SingleClient NetSyncId: -1 Function: SetPlayerPosition( 7, 6, 2 )

368.6799938: => Outgoing RPC Sent to: AllClients as SingleClient NetSyncId: -1 Function: StartTurn( 4 )

370.1550602: RPC ServerOnly NetSyncId: -1 Function: RequestMove( 2, 12 )

370.1689948: => Outgoing RPC Sent to: AllClients as SingleClient NetSyncId: -1 Function: UpdateHealth( 4, 90 )

378.6541215: => Outgoing RPC Sent to: AllClients as SingleClient NetSyncId: -1 Function: StartTurn( 6 )

380.2777681: RPC ServerOnly NetSyncId: -1 Function: PassTurn(  )

380.2915838: => Outgoing RPC Sent to: AllClients as SingleClient NetSyncId: -1 Function: StartTurn( 7 )

382.7945338: RPC ServerOnly NetSyncId: -1 Function: RequestMove( 6, 3 )

382.8082144: => Outgoing RPC Sent to: AllClients as SingleClient NetSyncId: -1 Function: SetPlayerPosition( 7, 6, 3 )

383.521973: RPC ServerOnly NetSyncId: -1 Function: RequestMove( 5, 3 )

383.5365974: => Outgoing RPC Sent to: AllClients as SingleClient NetSyncId: -1 Function: SetPlayerPosition( 7, 5, 3 )

390.0664456: RPC ServerOnly NetSyncId: -1 Function: RequestMove( 4, 3 )

390.0801379: => Outgoing RPC Sent to: AllClients as SingleClient NetSyncId: -1 Function: SetPlayerPosition( 7, 4, 3 )

392.1189544: RPC ServerOnly NetSyncId: -1 Function: RequestMove( 4, 4 )

392.1327765: => Outgoing RPC Sent to: AllClients as SingleClient NetSyncId: -1 Function: SetPlayerPosition( 7, 4, 4 )

395.7966468: RPC ServerOnly NetSyncId: -1 Function: RequestMove( 4, 5 )

395.810268: => Outgoing RPC Sent to: AllClients as SingleClient NetSyncId: -1 Function: SetPlayerPosition( 7, 4, 5 )

395.8248612: => Outgoing RPC Sent to: AllClients as SingleClient NetSyncId: -1 Function: StartTurn( 4 )

397.5486729: RPC ServerOnly NetSyncId: -1 Function: PassTurn(  )

397.5625463: => Outgoing RPC Sent to: AllClients as SingleClient NetSyncId: -1 Function: StartTurn( 6 )

400.711341: RPC ServerOnly NetSyncId: -1 Function: PassTurn(  )

400.7294954: => Outgoing RPC Sent to: AllClients as SingleClient NetSyncId: -1 Function: StartTurn( 7 )

402.9867208: RPC ServerOnly NetSyncId: -1 Function: RequestMove( 4, 6 )

403.0021171: => Outgoing RPC Sent to: AllClients as SingleClient NetSyncId: -1 Function: SetPlayerPosition( 7, 4, 6 )

403.7001426: RPC ServerOnly NetSyncId: -1 Function: RequestMove( 4, 7 )

403.7164961: => Outgoing RPC Sent to: AllClients as SingleClient NetSyncId: -1 Function: SetPlayerPosition( 7, 4, 7 )

405.5408248: RPC ServerOnly NetSyncId: -1 Function: RequestMove( 4, 8 )

405.5594147: => Outgoing RPC Sent to: AllClients as SingleClient NetSyncId: -1 Function: SetPlayerPosition( 7, 4, 8 )

406.9907712: RPC ServerOnly NetSyncId: -1 Function: RequestMove( 4, 9 )

407.0067523: => Outgoing RPC Sent to: AllClients as SingleClient NetSyncId: -1 Function: SetPlayerPosition( 7, 4, 9 )

409.7929484: RPC ServerOnly NetSyncId: -1 Function: PassTurn(  )

409.8095068: => Outgoing RPC Sent to: AllClients as SingleClient NetSyncId: -1 Function: UpdateHealth( 4, 80 )

410.7574542: RPC ServerOnly NetSyncId: -1 Function: RequestMove( 5, 9 )

410.7738597: => Outgoing RPC Sent to: AllClients as SingleClient NetSyncId: -1 Function: SetPlayerPosition( 7, 5, 9 )

410.7896857: => Outgoing RPC Sent to: AllClients as SingleClient NetSyncId: -1 Function: StartTurn( 4 )

420.2342567: RPC ServerOnly NetSyncId: -1 Function: RequestMove( 2, 13 )

420.250373: => Outgoing RPC Sent to: AllClients as SingleClient NetSyncId: -1 Function: UpdateHealth( 4, 70 )

420.7660295: => Outgoing RPC Sent to: AllClients as SingleClient NetSyncId: -1 Function: StartTurn( 6 )

423.8670982: RPC ServerOnly NetSyncId: -1 Function: RequestMove( 1, 4 )

423.8841939: => Outgoing RPC Sent to: AllClients as SingleClient NetSyncId: -1 Function: SetPlayerPosition( 6, 1, 4 )

426.1081453: RPC ServerOnly NetSyncId: -1 Function: RequestMove( 1, 3 )

426.1249054: => Outgoing RPC Sent to: AllClients as SingleClient NetSyncId: -1 Function: SetPlayerPosition( 6, 1, 3 )

426.1407208: => Outgoing RPC Sent to: AllClients as SingleClient NetSyncId: -1 Function: StartTurn( 7 )

426.1579223: RPC ServerOnly NetSyncId: -1 Function: PassTurn(  )

426.171832: => Outgoing RPC Sent to: AllClients as SingleClient NetSyncId: -1 Function: UpdateHealth( 6, 10 )

429.6959058: RPC ServerOnly NetSyncId: -1 Function: RequestMove( 4, 9 )

429.7136706: => Outgoing RPC Sent to: AllClients as SingleClient NetSyncId: -1 Function: SetPlayerPosition( 7, 4, 9 )

430.1653047: RPC ServerOnly NetSyncId: -1 Function: RequestMove( 4, 8 )

430.1821837: => Outgoing RPC Sent to: AllClients as SingleClient NetSyncId: -1 Function: SetPlayerPosition( 7, 4, 8 )

430.9307187: RPC ServerOnly NetSyncId: -1 Function: RequestMove( 4, 7 )

430.9472028: => Outgoing RPC Sent to: AllClients as SingleClient NetSyncId: -1 Function: SetPlayerPosition( 7, 4, 7 )

431.8440797: RPC ServerOnly NetSyncId: -1 Function: RequestMove( 3, 7 )

431.8578633: => Outgoing RPC Sent to: AllClients as SingleClient NetSyncId: -1 Function: SetPlayerPosition( 7, 3, 7 )

432.256278: RPC ServerOnly NetSyncId: -1 Function: RequestMove( 3, 6 )

432.2700129: => Outgoing RPC Sent to: AllClients as SingleClient NetSyncId: -1 Function: SetPlayerPosition( 7, 3, 6 )

432.2846072: => Outgoing RPC Sent to: AllClients as SingleClient NetSyncId: -1 Function: StartTurn( 4 )

442.2602827: => Outgoing RPC Sent to: AllClients as SingleClient NetSyncId: -1 Function: StartTurn( 6 )

445.5597183: RPC ServerOnly NetSyncId: -1 Function: RequestMove( 2, 3 )

445.5740078: => Outgoing RPC Sent to: AllClients as SingleClient NetSyncId: -1 Function: SetPlayerPosition( 6, 2, 3 )

445.5887056: RPC ServerOnly NetSyncId: -1 Function: RequestMove( 2, 3 )

445.602806: => Outgoing RPC Sent to: AllClients as SingleClient NetSyncId: -1 Function: UpdateHealth( 6, 0 )

445.6173179: => Outgoing RPC Sent to: AllClients as SingleClient NetSyncId: -1 Function: StartTurn( 7 )

447.9879038: RPC ServerOnly NetSyncId: -1 Function: RequestMove( 3, 7 )

448.0023267: => Outgoing RPC Sent to: AllClients as SingleClient NetSyncId: -1 Function: SetPlayerPosition( 7, 3, 7 )

450.0749499: RPC ServerOnly NetSyncId: -1 Function: RequestMove( 3, 8 )

450.0892882: => Outgoing RPC Sent to: AllClients as SingleClient NetSyncId: -1 Function: SetPlayerPosition( 7, 3, 8 )

451.4010537: RPC ServerOnly NetSyncId: -1 Function: RequestMove( 3, 9 )

451.4154112: => Outgoing RPC Sent to: AllClients as SingleClient NetSyncId: -1 Function: SetPlayerPosition( 7, 3, 9 )

453.2545276: RPC ServerOnly NetSyncId: -1 Function: PassTurn(  )

453.2694186: => Outgoing RPC Sent to: AllClients as SingleClient NetSyncId: -1 Function: StartTurn( 4 )

463.2480792: => Outgoing RPC Sent to: AllClients as SingleClient NetSyncId: -1 Function: StartTurn( 7 )

473.2633252: => Outgoing RPC Sent to: AllClients as SingleClient NetSyncId: -1 Function: StartTurn( 4 )

483.2788438: => Outgoing RPC Sent to: AllClients as SingleClient NetSyncId: -1 Function: StartTurn( 7 )

484.8081415: RPC ServerOnly NetSyncId: -1 Function: RequestMove( 3, 10 )

484.8246316: => Outgoing RPC Sent to: AllClients as SingleClient NetSyncId: -1 Function: SetPlayerPosition( 7, 3, 10 )

487.8597115: RPC ServerOnly NetSyncId: -1 Function: RequestMove( 3, 11 )

487.8772642: => Outgoing RPC Sent to: AllClients as SingleClient NetSyncId: -1 Function: SetPlayerPosition( 7, 3, 11 )

489.2392793: RPC ServerOnly NetSyncId: -1 Function: PassTurn(  )

489.2565552: => Outgoing RPC Sent to: AllClients as SingleClient NetSyncId: -1 Function: StartTurn( 4 )

493.303475: Disconnected -2663870139175795259 192.168.2.139
493.3184623: => Outgoing RPC Sent to: SingleClient as SingleClient NetSyncId: -1 Function: VoiceClientDisconnected(  )

499.250188: => Outgoing RPC Sent to: AllClients as SingleClient NetSyncId: -1 Function: StartTurn( 7 )

499.930795: RPC ServerOnly NetSyncId: -1 Function: RequestAttack( 3, 12 )

499.9451986: => Outgoing RPC Sent to: AllClients as SingleClient NetSyncId: -1 Function: AttackMade( 7, 3, 12 )

499.9543844: => Outgoing RPC Sent to: AllClients as SingleClient NetSyncId: -1 Function: UpdateHealth( 4, 60 )

499.9647248: => Outgoing RPC Sent to: AllClients as SingleClient NetSyncId: -1 Function: StartTurn( 4 )

509.9381412: => Outgoing RPC Sent to: AllClients as SingleClient NetSyncId: -1 Function: StartTurn( 7 )

510.9017152: RPC ServerOnly NetSyncId: -1 Function: RequestAttack( 3, 12 )

510.9178323: => Outgoing RPC Sent to: AllClients as SingleClient NetSyncId: -1 Function: AttackMade( 7, 3, 12 )

510.9309283: => Outgoing RPC Sent to: AllClients as SingleClient NetSyncId: -1 Function: UpdateHealth( 4, 50 )

510.9418238: => Outgoing RPC Sent to: AllClients as SingleClient NetSyncId: -1 Function: StartTurn( 4 )

520.915947: => Outgoing RPC Sent to: AllClients as SingleClient NetSyncId: -1 Function: StartTurn( 7 )

524.3184325: RPC ServerOnly NetSyncId: -1 Function: SendChat( this game sucks )

524.3343381: => Outgoing RPC Sent to: AllClients as SingleClient NetSyncId: -1 Function: DisplayChatMessage( Zack: this game sucks )

524.9662688: RPC ServerOnly NetSyncId: -1 Function: RequestAttack( 3, 12 )

524.9819044: => Outgoing RPC Sent to: AllClients as SingleClient NetSyncId: -1 Function: AttackMade( 7, 3, 12 )

524.9979022: => Outgoing RPC Sent to: AllClients as SingleClient NetSyncId: -1 Function: UpdateHealth( 4, 40 )

525.0124658: => Outgoing RPC Sent to: AllClients as SingleClient NetSyncId: -1 Function: StartTurn( 4 )

534.9702896: => Outgoing RPC Sent to: AllClients as SingleClient NetSyncId: -1 Function: StartTurn( 7 )

535.5677207: RPC ServerOnly NetSyncId: -1 Function: RequestAttack( 3, 12 )

535.5818804: => Outgoing RPC Sent to: AllClients as SingleClient NetSyncId: -1 Function: AttackMade( 7, 3, 12 )

535.5967122: => Outgoing RPC Sent to: AllClients as SingleClient NetSyncId: -1 Function: UpdateHealth( 4, 30 )

535.6111403: => Outgoing RPC Sent to: AllClients as SingleClient NetSyncId: -1 Function: StartTurn( 4 )

545.5698265: => Outgoing RPC Sent to: AllClients as SingleClient NetSyncId: -1 Function: StartTurn( 7 )

546.0362391: RPC ServerOnly NetSyncId: -1 Function: RequestAttack( 3, 12 )

546.0504664: => Outgoing RPC Sent to: AllClients as SingleClient NetSyncId: -1 Function: AttackMade( 7, 3, 12 )

546.0662036: => Outgoing RPC Sent to: AllClients as SingleClient NetSyncId: -1 Function: UpdateHealth( 4, 20 )

546.0808488: => Outgoing RPC Sent to: AllClients as SingleClient NetSyncId: -1 Function: StartTurn( 4 )

556.0362841: => Outgoing RPC Sent to: AllClients as SingleClient NetSyncId: -1 Function: StartTurn( 7 )

556.6664458: RPC ServerOnly NetSyncId: -1 Function: RequestAttack( 3, 12 )

556.6808203: => Outgoing RPC Sent to: AllClients as SingleClient NetSyncId: -1 Function: AttackMade( 7, 3, 12 )

556.6956336: => Outgoing RPC Sent to: AllClients as SingleClient NetSyncId: -1 Function: UpdateHealth( 4, 10 )

556.7101021: => Outgoing RPC Sent to: AllClients as SingleClient NetSyncId: -1 Function: StartTurn( 4 )

566.6775504: => Outgoing RPC Sent to: AllClients as SingleClient NetSyncId: -1 Function: StartTurn( 7 )

567.3235902: RPC ServerOnly NetSyncId: -1 Function: RequestAttack( 3, 12 )

567.3387093: => Outgoing RPC Sent to: AllClients as SingleClient NetSyncId: -1 Function: AttackMade( 7, 3, 12 )

567.3543348: => Outgoing RPC Sent to: AllClients as SingleClient NetSyncId: -1 Function: UpdateHealth( 4, 0 )

577.7630152: Server shutdown
